2017/lab_cd/aula5/MeioSomadorCompleto/simulation/qsim/MeioSomador4Bits.msim.vcd
$comment
	File created using the following command:
		vcd file MeioSomador4Bits.msim.vcd -direction
$end
$date
	Wed Oct 18 20:49:07 2017
$end
$version
	ModelSim Version 10.1d
$end
$timescale
	1ps
$end
$scope module MeioSomador4Bits_vlg_vec_tst $end
$var reg 8 ! SW [8:1] $end
$var wire 1 " HEX0 [6] $end
$var wire 1 # HEX0 [5] $end
$var wire 1 $ HEX0 [4] $end
$var wire 1 % HEX0 [3] $end
$var wire 1 & HEX0 [2] $end
$var wire 1 ' HEX0 [1] $end
$var wire 1 ( HEX0 [0] $end
$var wire 1 ) HEX1 [6] $end
$var wire 1 * HEX1 [5] $end
$var wire 1 + HEX1 [4] $end
$var wire 1 , HEX1 [3] $end
$var wire 1 - HEX1 [2] $end
$var wire 1 . HEX1 [1] $end
$var wire 1 / HEX1 [0] $end
$var wire 1 0 LEDR [4] $end
$var wire 1 1 LEDR [3] $end
$var wire 1 2 LEDR [2] $end
$var wire 1 3 LEDR [1] $end
$var wire 1 4 LEDR [0] $end
$var wire 1 5 sampler $end
$scope module i1 $end
$var wire 1 6 gnd $end
$var wire 1 7 vcc $end
$var wire 1 8 unknown $end
$var tri1 1 9 devclrn $end
$var tri1 1 : devpor $end
$var tri1 1 ; devoe $end
$var wire 1 < inst20~0_combout $end
$var wire 1 = inst22~0_combout $end
$var wire 1 > inst40~0_combout $end
$var wire 1 ? inst28~0_combout $end
$var wire 1 @ inst39~combout $end
$var wire 1 A inst40~1_combout $end
$var wire 1 B inst38~combout $end
$var wire 1 C inst37~combout $end
$var wire 1 D inst36~combout $end
$var wire 1 E inst34~0_combout $end
$var wire 1 F SW~combout [8] $end
$var wire 1 G SW~combout [7] $end
$var wire 1 H SW~combout [6] $end
$var wire 1 I SW~combout [5] $end
$var wire 1 J SW~combout [4] $end
$var wire 1 K SW~combout [3] $end
$var wire 1 L SW~combout [2] $end
$var wire 1 M SW~combout [1] $end
$upscope $end
$upscope $end
$enddefinitions $end
#0
$dumpvars
b0 !
0(
0'
0&
0%
0$
0#
1"
0/
0.
0-
0,
0+
0*
1)
04
03
02
01
00
x5
06
17
x8
19
1:
1;
0<
0=
0>
0?
0@
0A
0B
0C
0D
0E
0M
0L
0K
0J
0I
0H
0G
0F
$end
#10000
b1 !
b10001 !
1M
1I
05
1<
1C
1>
12
#20000
b10011 !
b110011 !
b110010 !
b100010 !
0M
1L
0I
1H
15
1=
0<
1B
0C
11
02
#30000
b100011 !
b110011 !
1M
1I
05
1<
1C
12
#40000
b110111 !
b1110111 !
b1110101 !
b1010101 !
b1010100 !
b1000100 !
0M
0L
1K
0I
0H
1G
15
0=
0<
1?
0B
0>
0C
1@
01
02
10
#50000
b1000101 !
b1010101 !
1M
1I
05
1<
1C
1>
12
#60000
b1010111 !
b1110111 !
b1110110 !
b1100110 !
0M
1L
0I
1H
15
1=
0<
1B
0C
11
02
#70000
b1100111 !
b1110111 !
1M
1I
05
1<
1C
12
#80000
b1111111 !
b11111111 !
b11111011 !
b10111011 !
b10111001 !
b10011001 !
b10011000 !
b10001000 !
0M
0L
0K
1J
0I
0H
0G
1F
15
0=
0<
0?
1E
1A
0@
0B
0>
0C
0A
14
00
01
02
#90000
b10001001 !
b10011001 !
1M
1I
05
1<
1C
1>
12
#100000
b10011011 !
b10111011 !
b10111010 !
b10101010 !
0M
1L
0I
1H
15
1=
0<
1B
0C
11
02
#110000
b10101011 !
b10111011 !
1M
1I
05
1<
1C
12
#120000
b10111111 !
b11111111 !
b11111101 !
b11011101 !
b11011100 !
b11001100 !
0M
0L
1K
0I
0H
1G
15
0=
0<
1?
0B
0>
0C
1A
0A
1@
01
02
10
#130000
b11001101 !
b11011101 !
1M
1I
05
1<
1C
1>
1A
0@
12
0C
00
02
#140000
b11011111 !
b11111111 !
b11111110 !
b11101110 !
0M
1L
0I
1H
15
1=
0<
#150000
b11101111 !
b11111111 !
1M
1I
05
1<
#160000
b11110111 !
b1110111 !
b1110011 !
b110011 !
b110001 !
b10001 !
b10000 !
b0 !
0M
0L
0K
0J
0I
0H
0G
0F
15
0=
0<
0?
0E
0A
1@
0>
0@
04
10
00
