2017/lab_cd/aula4/Segmentos7/simulation/qsim/Etapa1.msim.vcd
$comment
	File created using the following command:
		vcd file Etapa1.msim.vcd -direction
$end
$date
	Mon Oct 16 16:53:54 2017
$end
$version
	ModelSim Version 10.1d
$end
$timescale
	1ps
$end
$scope module Etapa1_vlg_vec_tst $end
$var reg 4 ! SW [4:1] $end
$var wire 1 " HEX0 [6] $end
$var wire 1 # HEX0 [5] $end
$var wire 1 $ HEX0 [4] $end
$var wire 1 % HEX0 [3] $end
$var wire 1 & HEX0 [2] $end
$var wire 1 ' HEX0 [1] $end
$var wire 1 ( HEX0 [0] $end
$var wire 1 ) sampler $end
$scope module i1 $end
$var wire 1 * gnd $end
$var wire 1 + vcc $end
$var wire 1 , unknown $end
$var tri1 1 - devclrn $end
$var tri1 1 . devpor $end
$var tri1 1 / devoe $end
$var wire 1 0 inst77~combout $end
$var wire 1 1 inst71~0_combout $end
$var wire 1 2 inst63~0_combout $end
$var wire 1 3 inst54~0_combout $end
$var wire 1 4 inst40~combout $end
$var wire 1 5 inst33~0_combout $end
$var wire 1 6 inst26~0_combout $end
$var wire 1 7 SW~combout [4] $end
$var wire 1 8 SW~combout [3] $end
$var wire 1 9 SW~combout [2] $end
$var wire 1 : SW~combout [1] $end
$upscope $end
$upscope $end
$enddefinitions $end
#0
$dumpvars
b0 !
0(
0'
0&
0%
0$
0#
1"
x)
0*
1+
x,
1-
1.
1/
10
01
02
03
04
05
06
0:
09
08
07
$end
#10000
b1 !
1:
0)
16
13
12
11
1(
1%
1$
1#
#20000
b11 !
b10 !
0:
19
1)
06
14
03
02
00
0(
1&
0%
0$
0"
#30000
b11 !
1:
0)
04
12
0&
1$
#40000
b111 !
b101 !
b100 !
0:
09
18
1)
16
13
01
1(
1%
0#
#50000
b101 !
1:
0)
06
15
03
0(
1'
0%
#60000
b111 !
b110 !
0:
19
1)
02
0$
#70000
b111 !
1:
0)
05
13
12
11
10
0'
1%
1$
1#
1"
#80000
b1111 !
b1011 !
b1001 !
b1000 !
0:
09
08
17
1)
03
02
01
00
0%
0$
0#
0"
#90000
b1001 !
1:
0)
12
1$
#100000
b1 !
b0 !
0:
07
1)
02
10
0$
1"
